…
6  PLT-TH1-1177   <NA>
7  PLT-TH1-1946   <NA>
8  PLT-TH1-2039   <NA>
9  PLT-TH1-2045   <NA>
10 PLT-TH1-2046   <NA>
11 PLT-TH1-2058   <NA>
12 PLT-TH1-2059   <NA>
13 PLT-TH1-2060   <NA>
14 PLT-TH1-2061   <NA>
15  PLT-TH1-993   <NA>
##########################################################################
### [MANUAL CORRECTIONS]: Using randomisation arms from randomisation database in further analyses
##########################################################################
### Clinical database: Checking if randomisation arms matched with the randomisation database:
# A tibble: 2,259 × 27
   Trial  Site  scrdat     scrid scrno scrpassed reason_failure scrnote Label rangrp rangrpoth randat     rantim dob_my age_yr age_mo
   <chr>  <chr> <date>     <chr> <dbl> <dbl+lbl> <dbl+lbl>      <chr>   <chr> <chr>  <chr>     <date>     <chr>  <chr>   <dbl>  <dbl>
 1 PLATC… br003 2022-02-02 PLT-…    18  1 [Yes]  NA             ""      PLT-… Favip… ""        2022-02-02 13:45… 05/08…     36     NA
 2 PLATC… br003 2022-02-08 PLT-…    40  1 [Yes]  NA             ""      PLT-… No st… ""        2022-02-08 10:18… 12/09…     20     NA
 3 PLATC… br003 2022-06-24 PLT-…    42  1 [Yes]  NA             ""      PLT-… Fluox… ""        2022-06-24 13:11… 20/09…     26     NA
 4 PLATC… br003 2022-02-10 PLT-…    47  1 [Yes]  NA             ""      PLT-… Remde… ""        2022-02-10 09:58… 09/01…     22     NA
 5 PLATC… br003 2022-02-10 PLT-…    49  1 [Yes]  NA             ""      PLT-… No st… ""        2022-02-10 10:41… 18/03…     22     NA
 6 PLATC… br003 2022-07-25 PLT-…    60  1 [Yes]  NA             ""      PLT-… No st… ""        2022-07-25 11:59… 28/06…     20     NA
 7 PLATC… br003 2022-02-16 PLT-…   104  1 [Yes]  NA             ""      PLT-… Favip… ""        2022-02-16 13:22… 12/02…     30     NA
 8 PLATC… br003 2024-01-09 PLT-…   115  1 [Yes]  NA             ""      PLT-… Nitaz… ""        2024-01-10 09:30… 23/10…     19     NA
 9 PLATC… br003 2022-02-18 PLT-…   124  1 [Yes]  NA             ""      PLT-… Nitaz… ""        2022-02-18 10:31… 31/03…     20     NA
10 PLATC… br003 2024-09-30 PLT-…   133 NA        NA             ""      PLT-… Nitaz… ""        2024-09-30 14:22… 24/03…     58     NA
# ℹ 2,249 more rows
# ℹ 11 more variables: sex <dbl+lbl>, height <dbl>, weight <dbl>, cov_symphr <dbl>, cov_sympday <dbl>, cov_test <dbl+lbl>,
#   vs_temp <dbl>, Sex <chr>, BMI <dbl>, Weight <dbl>, Rand_date_time <chr>
# ℹ Use `print(n = ...)` to see more rows
…
46 PLT-TH1-2050   D14
47 PLT-TH1-2051   D14
48 PLT-TH1-2052   D14
49 PLT-TH1-2053   D14
50 PLT-TH1-2054   D14
51 PLT-TH1-2055   D14
52 PLT-TH1-2056   D14
53 PLT-TH1-2057   D14
54 PLT-TH1-2058   D14
55 PLT-TH1-2059   D14
56  PLT-TH1-388   D14
57  PLT-TH1-450   D14
58  PLT-TH1-942   D14
##########################################################################
# A tibble: 27,264 × 11
   Trial   Site  Label       visit vd_dat     vs_tim     vs_temp vs_hr vs_sbp vs_dbp vs_rr
   <chr>   <chr> <chr>       <chr> <date>     <chr>        <dbl> <dbl>  <dbl>  <dbl> <dbl>
 1 PLATCOV br003 PLT-BR3-001 D0    2022-02-02 "13:05:00"    36.1    82    130     80    19
 2 PLATCOV br003 PLT-BR3-001 D0H1  2022-02-02 "15:33:00"    36.6    84    107     81    20
 3 PLATCOV br003 PLT-BR3-001 D0H12 2022-02-02 ""            NA      NA     NA     NA    NA
 4 PLATCOV br003 PLT-BR3-001 D1    2022-02-03 "10:04:00"    35.9    84     90     50    20
 5 PLATCOV br003 PLT-BR3-001 D2    2022-02-04 "09:58:00"    35.7    88     90     50    20
 6 PLATCOV br003 PLT-BR3-001 D3    2022-02-05 "10:00:00"    36.6    81    100     60    16
 7 PLATCOV br003 PLT-BR3-001 D4    2022-02-06 "10:00:00"    36.6    87     90     60    17
 8 PLATCOV br003 PLT-BR3-001 D5    2022-02-07 "09:59:00"    35.7   100    100     70    20
 9 PLATCOV br003 PLT-BR3-001 D6    2022-02-08 "09:55:00"    35.5    94    100     60    20
10 PLATCOV br003 PLT-BR3-001 D7    2022-02-09 "08:10:00"    36      76    125     91    18
# ℹ 27,254 more rows
# ℹ Use `print(n = ...)` to see more rows
…
