…
[307] "PLT-TH1-1987" "PLT-TH1-1988" "PLT-TH1-1989" "PLT-TH1-1990" "PLT-TH1-1991" "PLT-TH1-1992"
[313] "PLT-TH1-1993" "PLT-TH1-1994" "PLT-TH1-1995" "PLT-TH1-1996" "PLT-TH1-1997" "PLT-TH1-1998"
[319] "PLT-TH1-1999" "PLT-TH1-2000" "PLT-TH1-2001" "PLT-TH1-2002" "PLT-TH1-2003" "PLT-TH1-2004"
[325] "PLT-TH1-2005" "PLT-TH1-2006" "PLT-TH1-2007" "PLT-TH1-2008" "PLT-TH1-2009" "PLT-TH1-2010"
[331] "PLT-TH1-2011" "PLT-TH1-2012" "PLT-TH1-2013" "PLT-TH1-2014" "PLT-TH1-2015" "PLT-TH1-2016"
[337] "PLT-TH1-2017" "PLT-TH1-2018" "PLT-TH1-2019" "PLT-TH1-2020" "PLT-TH1-2021" "PLT-TH1-2022"
[343] "PLT-TH1-2023" "PLT-TH1-2024" "PLT-TH1-2025" "PLT-TH1-2026" "PLT-TH1-2027" "PLT-TH1-2028"
[349] "PLT-TH1-2029" "PLT-TH1-2030" "PLT-TH1-2031" "PLT-TH1-2032" "PLT-TH1-2033" "PLT-TH1-2034"
[355] "PLT-TH1-2035" "PLT-TH1-2036" "PLT-TH1-2037" "PLT-TH1-2038" "PLT-TH1-2039" "PLT-TH1-2040"
[361] "PLT-TH1-2041" "PLT-TH1-2042" "PLT-TH1-2043" "PLT-TH1-2044" "PLT-TH1-2045" "PLT-TH1-2046"
[367] "PLT-TH1-2047" "PLT-TH1-2048" "PLT-TH1-2049" "PLT-TH1-2050" "PLT-TH1-2051" "PLT-TH1-2052"
[373] "PLT-BR3-131"  "PLT-BR3-132"  "PLT-BR3-133"  "PLT-BR3-134"  "PLT-BR3-135"  "PLT-BR3-136" 
[379] "PLT-BR3-137"  "PLT-BR3-138"  "PLT-BR3-139"  "PLT-BR3-140"  "PLT-BR3-141"  "PLT-BR3-142" 
[385] "PLT-LA8-034"  "PLT-LA8-035"  "PLT-LA8-036"  "PLT-LA8-037"  "PLT-LA8-038" 
# A tibble: 1,874 × 17
   Trial   Site  Label     rangrp  fs_compyn fs_dat     fs_rsn fs_deathdat fs_rsnothsp fs_comm fs_ae   fs_sae
   <chr>   <chr> <chr>     <dbl+l> <dbl+lbl> <date>     <dbl+> <date>      <chr>       <chr>   <dbl+l> <dbl+>
 1 PLATCOV br003 PLT-BR3-… 4 [Fav… 1 [Yes]   2022-03-03 NA     NA          ""          ""      0 [No]  0 [No]
 2 PLATCOV br003 PLT-BR3-… 5 [No … 1 [Yes]   2022-03-09 NA     NA          ""          ""      0 [No]  0 [No]
 3 PLATCOV br003 PLT-BR3-… 3 [Rem… 1 [Yes]   2022-03-10 NA     NA          ""          "NOT A… 0 [No]  0 [No]
 4 PLATCOV br003 PLT-BR3-… 5 [No … 1 [Yes]   2022-03-10 NA     NA          ""          ""      0 [No]  0 [No]
 5 PLATCOV br003 PLT-BR3-… 4 [Fav… 1 [Yes]   2022-03-16 NA     NA          ""          ""      0 [No]  0 [No]
 6 PLATCOV br003 PLT-BR3-… 7 [Nit… 1 [Yes]   2022-03-18 NA     NA          ""          "PARTI… 0 [No]  0 [No]
 7 PLATCOV br003 PLT-BR3-… 4 [Fav… 1 [Yes]   2022-03-31 NA     NA          ""          "PATIE… 1 [Yes] 0 [No]
 8 PLATCOV br003 PLT-BR3-… 5 [No … 1 [Yes]   2022-04-01 NA     NA          ""          ""      1 [Yes] 0 [No]
 9 PLATCOV br003 PLT-BR3-… 4 [Fav… 1 [Yes]   2022-04-04 NA     NA          ""          ""      0 [No]  0 [No]
10 PLATCOV br003 PLT-BR3-… 7 [Nit… 1 [Yes]   2022-06-08 NA     NA          ""          ""      0 [No]  0 [No]
# ℹ 1,864 more rows
# ℹ 5 more variables: fs_unsche <dbl+lbl>, fs_conmed <dbl+lbl>, fs_tretchange <dbl+lbl>,
#   fs_diecov <dbl+lbl>, fs_tretchandat <date>
# ℹ Use `print(n = ...)` to see more rows
…
     4                             Favipiravir
     5                           No study drug
     6                                   Other
     7                            Nitazoxanida
     8                            Molnupiravir
     9                  Nirmatrelvir/ritonavir
    10                              Sotrovimab
    11                              Fluoxetine
    12                             Fluvoxamine
    13                                Evusheld
    14                             Ensitrelvir
    15 Molnupiravir and Nirmatrelvir/ritonavir
    16                      Hydroxychloroquine
    99                          Not Applicable
# A tibble: 202 × 17
   Trial   Site  Label  rangrp   fs_compyn fs_dat     fs_rsn fs_deathdat fs_rsnothsp fs_comm fs_ae    fs_sae 
   <chr>   <chr> <chr>  <dbl+lb> <dbl+lbl> <date>     <dbl+> <date>      <chr>       <chr>   <dbl+lb> <dbl+l>
 1 PLATCOV la008 PLT-L… 14 [Ens…  1 [Yes]  2023-05-31 NA     NA          ""          ""       0 [No]   0 [No]
 2 PLATCOV la008 PLT-L… 14 [Ens…  1 [Yes]  2023-08-16 NA     NA          ""          ""       0 [No]   0 [No]
 3 PLATCOV la008 PLT-L… 14 [Ens…  1 [Yes]  2024-01-05 NA     NA          ""          ""       1 [Yes]  0 [No]
 4 PLATCOV la008 PLT-L… 14 [Ens…  1 [Yes]  2024-05-02 NA     NA          ""          ""       0 [No]   0 [No]
 5 PLATCOV th001 PLT-T… 14 [Ens…  1 [Yes]  2024-01-04 NA     NA          ""          ""      NA       NA     
 6 PLATCOV th001 PLT-T… 14 [Ens…  1 [Yes]  2023-10-04 NA     NA          ""          ""       0 [No]   0 [No]
 7 PLATCOV th001 PLT-T… 14 [Ens… NA        NA         NA     NA          ""          ""      NA       NA     
 8 PLATCOV th001 PLT-T… 14 [Ens… NA        NA         NA     NA          ""          ""      NA       NA     
 9 PLATCOV th001 PLT-T… 14 [Ens…  1 [Yes]  2023-10-21 NA     NA          ""          ""      NA       NA     
10 PLATCOV th001 PLT-T… 14 [Ens… NA        NA         NA     NA          ""          ""      NA       NA     
# ℹ 192 more rows
# ℹ 5 more variables: fs_unsche <dbl+lbl>, fs_conmed <dbl+lbl>, fs_tretchange <dbl+lbl>,
#   fs_diecov <dbl+lbl>, fs_tretchandat <date>
# ℹ Use `print(n = ...)` to see more rows
…
